{"success":true,"statusCode":"200","data":{"pageCount":36,"pageNo":1,"pageSize":4,"total":143,
  "result":[
    {"id":"145914404432893","hxArticleCat":null,"title":"智慧碰撞—— 成功企业家俱乐部携手清友会","summary":"2016年3月17日，成功企业家俱乐部携手清友会来到邢台，开始了为期四天的走访学习活动。访问了邢台金沙河面业集团、邢台路桥照明科技有限公司和锦江不夜城。活动期间，清友会为邢台的企业家举行了众筹创业与融资技巧、科技治理创新、互联网+时代下的商业模式创新等讲座。","source":"鸿鑫国际","editor":"封叶","imgUrl":"http://www.hongxinguoji.cn/group1/M00/00/05/Zckdh1b4xmeAUItbAABrc6fGE54427.jpg","videoUrl":"","status":"1","createTime":"2016-03-28","updateTime":"2016-03-28"},
    {"id":"145914376653747","hxArticleCat":null,"title":"走进“邢台照明”，领略成功企业家风采","summary":"2016年3月19日，成功企业家俱乐部走进邢台路桥建设总公司照明科技公司（现邢台路桥照明科技有限公司），对总经理李现平先生进行专访。李现平总经理在办公室接待了我们，专访在愉快的氛围中开始了，从其职业生涯的转折谈到如何运用创新战略逐步带领企业走出困境、迎来曙光。","source":"","editor":"封叶","imgUrl":"http://www.hongxinguoji.cn/group1/M00/00/05/Zckdh1b4x8qAcU4aAABUa5cm-24846.jpg","videoUrl":"","status":"1","createTime":"2016-03-28","updateTime":"2016-03-28"},
    {"id":"145914344960062","hxArticleCat":null,"title":"成功企业家俱乐部走进”金沙河面业”集团","summary":"成功企业家俱乐部携手清友会百余名同学于2016年3月19日走进河北省龙头企业——“金沙河面业”集团。金沙河面业集团董事长魏海金先生在会议室接待了大家，对大家的到来表示热烈欢迎，并且就金沙河面业集团的发展情况作了简单介绍。随后，在金沙河面业集团人力资源主管李学良先生的带领下参观集团的厂区。","source":"","editor":"封叶","imgUrl":"http://www.hongxinguoji.cn/group1/M00/00/05/Zckdh1b4yP2AP7KxAABNpTqRSbA631.jpg","videoUrl":"","status":"1","createTime":"2016-03-28","updateTime":"2016-03-28"},
    {"id":"145914317688364","hxArticleCat":null,"title":"成功企业家俱乐部走进邢台锦江不夜城","summary":"2016年3月17—20日，成功企业家俱乐部走进河北省邢台市“锦江不夜城”。锦江不夜城是由邢台路桥房地产开发公司根据邢台市委市政府提出的“一轴、两带、多中心”战略发展规划，兴建的“欧式滨水休闲”商业街，位于七里河南岸，总建筑商业面积12万平方米，由东西走向7栋楼座组成，全长815米，街道空间宽度28米。","source":"鸿鑫国际","editor":"封叶","imgUrl":"http://www.hongxinguoji.cn/group1/M00/00/05/Zckdh1b4yduAfPPPAABPLyc0NK4475.jpg","videoUrl":"","status":"1","createTime":"2016-03-28","updateTime":"2016-03-28"}]},
  "attribute":{"summary":"","id":"","title":"","source":"","status":"1","paramMap":{},"pageNo":"1","criteriaQuery":{"curPage":1,"pageSize":10,"criterionList":[],"detachedCriteria":{"alias":"this"},"flag":true,"field":"","entityClass":null,"results":null,"total":0,"map":{"status":1}},"pageSize":"4","cid":""}}